module example.com/m

go 1.17

require (
	github.com/openshift-kni/performance-addon-operators v0.0.41001
	k8s.io/api v0.23.0
)

require (
	github.com/beorn7/perks v1.0.1 // indirect
	github.com/cespare/xxhash/v2 v2.1.1 // indirect
	github.com/coreos/go-semver v0.3.0 // indirect
	github.com/davecgh/go-spew v1.1.1 // indirect
	github.com/evanphx/json-patch v4.12.0+incompatible // indirect
	github.com/fsnotify/fsnotify v1.5.1 // indirect
	github.com/ghodss/yaml v1.0.1-0.20190212211648-25d852aebe32 // indirect
	github.com/go-logr/logr v1.2.0 // indirect
	github.com/gogo/protobuf v1.3.2 // indirect
	github.com/golang/groupcache v0.0.0-20210331224755-41bb18bfe9da // indirect
	github.com/golang/protobuf v1.5.2 // indirect
	github.com/google/go-cmp v0.5.6 // indirect
	github.com/google/gofuzz v1.1.0 // indirect
	github.com/google/uuid v1.1.2 // indirect
	github.com/googleapis/gnostic v0.5.5 // indirect
	github.com/imdario/mergo v0.3.12 // indirect
	github.com/json-iterator/go v1.1.12 // indirect
	github.com/matttproud/golang_protobuf_extensions v1.0.2-0.20181231171920-c182affec369 // indirect
	github.com/moby/spdystream v0.2.0 // indirect
	github.com/modern-go/concurrent v0.0.0-20180306012644-bacd9c7ef1dd // indirect
	github.com/modern-go/reflect2 v1.0.2 // indirect
	github.com/nxadm/tail v1.4.8 // indirect
	github.com/onsi/ginkgo v1.16.5 // indirect
	github.com/onsi/gomega v1.17.0 // indirect
	github.com/openshift/api v3.9.1-0.20191111211345-a27ff30ebf09+incompatible // indirect
	github.com/openshift/cluster-node-tuning-operator v0.0.0-20200914165052-a39511828cf0 // indirect
	github.com/openshift/custom-resource-status v0.0.0-20200602122900-c002fd1547ca // indirect
	github.com/openshift/machine-config-operator v4.2.0-alpha.0.0.20190917115525-033375cbe820+incompatible // indirect
	github.com/operator-framework/operator-lifecycle-manager v3.11.0+incompatible // indirect
	github.com/pkg/errors v0.9.1 // indirect
	github.com/prometheus/client_golang v1.11.0 // indirect
	github.com/prometheus/client_model v0.2.0 // indirect
	github.com/prometheus/common v0.28.0 // indirect
	github.com/prometheus/procfs v0.6.0 // indirect
	github.com/spf13/pflag v1.0.5 // indirect
	golang.org/x/net v0.0.0-20210825183410-e898025ed96a // indirect
	golang.org/x/oauth2 v0.0.0-20210819190943-2bc19b11175f // indirect
	golang.org/x/sys v0.0.0-20211029165221-6e7872819dc8 // indirect
	golang.org/x/term v0.0.0-20210615171337-6886f2dfbf5b // indirect
	golang.org/x/text v0.3.7 // indirect
	golang.org/x/time v0.0.0-20210723032227-1f47c861a9ac // indirect
	gomodules.xyz/jsonpatch/v2 v2.2.0 // indirect
	google.golang.org/appengine v1.6.7 // indirect
	google.golang.org/protobuf v1.27.1 // indirect
	gopkg.in/inf.v0 v0.9.1 // indirect
	gopkg.in/tomb.v1 v1.0.0-20141024135613-dd632973f1e7 // indirect
	gopkg.in/yaml.v2 v2.4.0 // indirect
	gopkg.in/yaml.v3 v3.0.0-20210107192922-496545a6307b // indirect
	k8s.io/apiextensions-apiserver v0.23.0 // indirect
	k8s.io/apimachinery v0.23.0 // indirect
	k8s.io/client-go v0.23.0 // indirect
	k8s.io/component-base v0.23.0 // indirect
	k8s.io/klog v1.0.0 // indirect
	k8s.io/klog/v2 v2.30.0 // indirect
	k8s.io/kube-openapi v0.0.0-20211115234752-e816edb12b65 // indirect
	k8s.io/kubelet v0.23.0 // indirect
	k8s.io/kubernetes v0.23.0 // indirect
	k8s.io/utils v0.0.0-20210930125809-cb0fa318a74b // indirect
	sigs.k8s.io/controller-runtime v0.11.0 // indirect
	sigs.k8s.io/json v0.0.0-20211020170558-c049b76a60c6 // indirect
	sigs.k8s.io/structured-merge-diff/v4 v4.2.0 // indirect
	sigs.k8s.io/yaml v1.3.0 // indirect
)

// Pinned to kubernetes-1.23.0
replace (
	k8s.io/api => k8s.io/api v0.23.0
	k8s.io/apiextensions-apiserver => k8s.io/apiextensions-apiserver v0.23.0
	k8s.io/apimachinery => k8s.io/apimachinery v0.23.0
	k8s.io/apiserver => k8s.io/apiserver v0.23.0
	k8s.io/cli-runtime => k8s.io/cli-runtime v0.23.0
	k8s.io/client-go => k8s.io/client-go v0.23.0
	k8s.io/cloud-provider => k8s.io/cloud-provider v0.23.0
	k8s.io/cluster-bootstrap => k8s.io/cluster-bootstrap v0.23.0
	k8s.io/code-generator => k8s.io/code-generator v0.23.0
	k8s.io/component-base => k8s.io/component-base v0.23.0
	k8s.io/component-helpers => k8s.io/component-helpers v0.23.0
	k8s.io/controller-manager => k8s.io/controller-manager v0.23.0
	k8s.io/cri-api => k8s.io/cri-api v0.23.0
	k8s.io/csi-translation-lib => k8s.io/csi-translation-lib v0.23.0
	k8s.io/kube-aggregator => k8s.io/kube-aggregator v0.23.0
	k8s.io/kube-controller-manager => k8s.io/kube-controller-manager v0.23.0
	k8s.io/kube-proxy => k8s.io/kube-proxy v0.23.0
	k8s.io/kube-scheduler => k8s.io/kube-scheduler v0.23.0
	k8s.io/kubectl => k8s.io/kubectl v0.23.0
	k8s.io/kubelet => k8s.io/kubelet v0.23.0
	k8s.io/kubernetes => k8s.io/kubernetes v1.23.0
	k8s.io/legacy-cloud-providers => k8s.io/legacy-cloud-providers v0.23.0
	k8s.io/metrics => k8s.io/metrics v0.23.0
	k8s.io/mount-utils => k8s.io/mount-utils v0.23.0
	k8s.io/pod-security-admission => k8s.io/pod-security-admission v0.23.0
	k8s.io/sample-apiserver => k8s.io/sample-apiserver v0.23.0
	sigs.k8s.io/controller-runtime => sigs.k8s.io/controller-runtime v0.11.0
	sigs.k8s.io/controller-tools => sigs.k8s.io/controller-tools v0.6.2
)

// Other pinned deps
replace (
	github.com/Azure/go-autorest => github.com/Azure/go-autorest v14.2.0+incompatible
	github.com/coreos/prometheus-operator => github.com/coreos/prometheus-operator v0.40.0
	github.com/mtrmac/gpgme => github.com/mtrmac/gpgme v0.1.1
	github.com/openshift/api => github.com/openshift/api v0.0.0-20210610130314-a6ac319a7eed // release-4.8
	github.com/openshift/client-go => github.com/openshift/client-go v0.0.0-20210521082421-73d9475a9142 // release-4.8
	github.com/openshift/cluster-node-tuning-operator => github.com/openshift/cluster-node-tuning-operator v0.0.0-20210303185751-cbeeb4d9f3cc // release-4.9
	github.com/openshift/library-go => github.com/openshift/library-go v0.0.0-20211208213416-9b73bdcf5d00 // release-4.8
	github.com/openshift/machine-config-operator => github.com/openshift/machine-config-operator v0.0.1-0.20210701174259-29813c845a4a // release-4.8
	github.com/operator-framework/operator-sdk => github.com/operator-framework/operator-sdk v0.18.1
	golang.org/x/tools => golang.org/x/tools v0.0.0-20191206213732-070c9d21b343
)
